-- Merging decision tree log ---
manifest
ADDED from C:\Users\Sayed Roohullah\AndroidStudioProjects\App Ruler and Measurement\AppRulerandMeasurement\bubble_level\src\main\AndroidManifest.xml:2:1-29:12
INJECTED from C:\Users\Sayed Roohullah\AndroidStudioProjects\App Ruler and Measurement\AppRulerandMeasurement\bubble_level\src\main\AndroidManifest.xml:2:1-29:12
INJECTED from C:\Users\Sayed Roohullah\AndroidStudioProjects\App Ruler and Measurement\AppRulerandMeasurement\bubble_level\src\main\AndroidManifest.xml:2:1-29:12
	package
		ADDED from C:\Users\Sayed Roohullah\AndroidStudioProjects\App Ruler and Measurement\AppRulerandMeasurement\bubble_level\src\main\AndroidManifest.xml:3:5-35
		INJECTED from C:\Users\Sayed Roohullah\AndroidStudioProjects\App Ruler and Measurement\AppRulerandMeasurement\bubble_level\src\main\AndroidManifest.xml
		INJECTED from C:\Users\Sayed Roohullah\AndroidStudioProjects\App Ruler and Measurement\AppRulerandMeasurement\bubble_level\src\main\AndroidManifest.xml
	xmlns:android
		ADDED from C:\Users\Sayed Roohullah\AndroidStudioProjects\App Ruler and Measurement\AppRulerandMeasurement\bubble_level\src\main\AndroidManifest.xml:2:11-69
uses-permission#android.permission.WAKE_LOCK
ADDED from C:\Users\Sayed Roohullah\AndroidStudioProjects\App Ruler and Measurement\AppRulerandMeasurement\bubble_level\src\main\AndroidManifest.xml:5:5-68
	android:name
		ADDED from C:\Users\Sayed Roohullah\AndroidStudioProjects\App Ruler and Measurement\AppRulerandMeasurement\bubble_level\src\main\AndroidManifest.xml:5:22-65
uses-feature#android.hardware.sensor.accelerometer
ADDED from C:\Users\Sayed Roohullah\AndroidStudioProjects\App Ruler and Measurement\AppRulerandMeasurement\bubble_level\src\main\AndroidManifest.xml:6:5-8:35
	android:required
		ADDED from C:\Users\Sayed Roohullah\AndroidStudioProjects\App Ruler and Measurement\AppRulerandMeasurement\bubble_level\src\main\AndroidManifest.xml:8:9-32
	android:name
		ADDED from C:\Users\Sayed Roohullah\AndroidStudioProjects\App Ruler and Measurement\AppRulerandMeasurement\bubble_level\src\main\AndroidManifest.xml:7:9-61
application
ADDED from C:\Users\Sayed Roohullah\AndroidStudioProjects\App Ruler and Measurement\AppRulerandMeasurement\bubble_level\src\main\AndroidManifest.xml:10:5-27:19
	android:name
		ADDED from C:\Users\Sayed Roohullah\AndroidStudioProjects\App Ruler and Measurement\AppRulerandMeasurement\bubble_level\src\main\AndroidManifest.xml:11:9-53
activity#com.woheller69.level.Level
ADDED from C:\Users\Sayed Roohullah\AndroidStudioProjects\App Ruler and Measurement\AppRulerandMeasurement\bubble_level\src\main\AndroidManifest.xml:15:9-25:20
	android:screenOrientation
		ADDED from C:\Users\Sayed Roohullah\AndroidStudioProjects\App Ruler and Measurement\AppRulerandMeasurement\bubble_level\src\main\AndroidManifest.xml:18:13-49
	android:hardwareAccelerated
		ADDED from C:\Users\Sayed Roohullah\AndroidStudioProjects\App Ruler and Measurement\AppRulerandMeasurement\bubble_level\src\main\AndroidManifest.xml:17:13-47
	android:exported
		ADDED from C:\Users\Sayed Roohullah\AndroidStudioProjects\App Ruler and Measurement\AppRulerandMeasurement\bubble_level\src\main\AndroidManifest.xml:20:13-36
	android:theme
		ADDED from C:\Users\Sayed Roohullah\AndroidStudioProjects\App Ruler and Measurement\AppRulerandMeasurement\bubble_level\src\main\AndroidManifest.xml:19:13-60
	android:name
		ADDED from C:\Users\Sayed Roohullah\AndroidStudioProjects\App Ruler and Measurement\AppRulerandMeasurement\bubble_level\src\main\AndroidManifest.xml:16:13-54
uses-sdk
INJECTED from C:\Users\Sayed Roohullah\AndroidStudioProjects\App Ruler and Measurement\AppRulerandMeasurement\bubble_level\src\main\AndroidManifest.xml reason: use-sdk injection requested
INJECTED from C:\Users\Sayed Roohullah\AndroidStudioProjects\App Ruler and Measurement\AppRulerandMeasurement\bubble_level\src\main\AndroidManifest.xml
INJECTED from C:\Users\Sayed Roohullah\AndroidStudioProjects\App Ruler and Measurement\AppRulerandMeasurement\bubble_level\src\main\AndroidManifest.xml
INJECTED from C:\Users\Sayed Roohullah\AndroidStudioProjects\App Ruler and Measurement\AppRulerandMeasurement\bubble_level\src\main\AndroidManifest.xml
INJECTED from C:\Users\Sayed Roohullah\AndroidStudioProjects\App Ruler and Measurement\AppRulerandMeasurement\bubble_level\src\main\AndroidManifest.xml
	android:targetSdkVersion
		INJECTED from C:\Users\Sayed Roohullah\AndroidStudioProjects\App Ruler and Measurement\AppRulerandMeasurement\bubble_level\src\main\AndroidManifest.xml
		ADDED from C:\Users\Sayed Roohullah\AndroidStudioProjects\App Ruler and Measurement\AppRulerandMeasurement\bubble_level\src\main\AndroidManifest.xml
		INJECTED from C:\Users\Sayed Roohullah\AndroidStudioProjects\App Ruler and Measurement\AppRulerandMeasurement\bubble_level\src\main\AndroidManifest.xml
	android:minSdkVersion
		INJECTED from C:\Users\Sayed Roohullah\AndroidStudioProjects\App Ruler and Measurement\AppRulerandMeasurement\bubble_level\src\main\AndroidManifest.xml
		ADDED from C:\Users\Sayed Roohullah\AndroidStudioProjects\App Ruler and Measurement\AppRulerandMeasurement\bubble_level\src\main\AndroidManifest.xml
		INJECTED from C:\Users\Sayed Roohullah\AndroidStudioProjects\App Ruler and Measurement\AppRulerandMeasurement\bubble_level\src\main\AndroidManifest.xml
